INDEX VERSION 1.131+/home/pawel/tematy/38-io/.metadata/.plugins/org.eclipse.jdt.core
2066489604.index
3885805113.index
2982035129.index
3721837726.index
2630498905.index
3214207201.index
2841451250.index
2774693096.index
742522455.index
527624335.index
2233963263.index
120211678.index
1932949083.index
3888198363.index
46282419.index
1913109094.index
2771403403.index
